{
  "epoch": 14894,
  "fsid": "xxxxxxxxxx",
  "created": "2016-06-05 23:05:26.230215",
  "modified": "2016-06-05 23:05:26.230215",
  "flags": "",
  "cluster_snapshot": "",
  "pool_max": 20,
  "max_osd": 16,
  "pools": [
    {
      "pool": 0,
      "pool_name": "data",
      "flags": 0,
      "flags_names": "",
      "type": 1,
      "size": 3,
      "min_size": 1,
      "crush_ruleset": 0,
      "object_hash": 2,
      "pg_num": 500,
      "pg_placement_num": 500,
      "crash_replay_interval": 45,
      "last_change": "4248",
      "last_force_op_resend": "0",
      "auid": 0,
      "snap_mode": "selfmanaged",
      "snap_seq": 0,
      "snap_epoch": 0,
      "pool_snaps": [],
      "removed_snaps": "[]",
      "quota_max_bytes": 0,
      "quota_max_objects": 0,
      "tiers": [],
      "tier_of": -1,
      "read_tier": -1,
      "write_tier": -1,
      "cache_mode": "none",
      "target_max_bytes": 0,
      "target_max_objects": 0,
      "cache_target_dirty_ratio_micro": 0,
      "cache_target_full_ratio_micro": 0,
      "cache_min_flush_age": 0,
      "cache_min_evict_age": 0,
      "erasure_code_profile": "",
      "hit_set_params": {
        "type": "none"
      },
      "hit_set_period": 0,
      "hit_set_count": 0,
      "min_read_recency_for_promote": 1,
      "stripe_width": 0,
      "expected_num_objects": 0
    },
    {
      "pool": 1,
      "pool_name": "metadata",
      "flags": 0,
      "flags_names": "",
      "type": 1,
      "size": 2,
      "min_size": 1,
      "crush_ruleset": 1,
      "object_hash": 2,
      "pg_num": 500,
      "pg_placement_num": 500,
      "crash_replay_interval": 0,
      "last_change": "13369",
      "last_force_op_resend": "0",
      "auid": 0,
      "snap_mode": "selfmanaged",
      "snap_seq": 3,
      "snap_epoch": 13369,
      "pool_snaps": [],
      "removed_snaps": "[1~3]",
      "quota_max_bytes": 0,
      "quota_max_objects": 0,
      "tiers": [],
      "tier_of": -1,
      "read_tier": -1,
      "write_tier": -1,
      "cache_mode": "none",
      "target_max_bytes": 0,
      "target_max_objects": 0,
      "cache_target_dirty_ratio_micro": 0,
      "cache_target_full_ratio_micro": 0,
      "cache_min_flush_age": 0,
      "cache_min_evict_age": 0,
      "erasure_code_profile": "",
      "hit_set_params": {
        "type": "none"
      },
      "hit_set_period": 0,
      "hit_set_count": 0,
      "min_read_recency_for_promote": 1,
      "stripe_width": 0,
      "expected_num_objects": 0
    },
    {
      "pool": 2,
      "pool_name": "rbd",
      "flags": 0,
      "flags_names": "",
      "type": 1,
      "size": 2,
      "min_size": 1,
      "crush_ruleset": 2,
      "object_hash": 2,
      "pg_num": 512,
      "pg_placement_num": 512,
      "crash_replay_interval": 0,
      "last_change": "5123",
      "last_force_op_resend": "0",
      "auid": 0,
      "snap_mode": "selfmanaged",
      "snap_seq": 0,
      "snap_epoch": 0,
      "pool_snaps": [],
      "removed_snaps": "[]",
      "quota_max_bytes": 0,
      "quota_max_objects": 0,
      "tiers": [],
      "tier_of": -1,
      "read_tier": -1,
      "write_tier": -1,
      "cache_mode": "none",
      "target_max_bytes": 0,
      "target_max_objects": 0,
      "cache_target_dirty_ratio_micro": 0,
      "cache_target_full_ratio_micro": 0,
      "cache_min_flush_age": 0,
      "cache_min_evict_age": 0,
      "erasure_code_profile": "",
      "hit_set_params": {
        "type": "none"
      },
      "hit_set_period": 0,
      "hit_set_count": 0,
      "min_read_recency_for_promote": 1,
      "stripe_width": 0,
      "expected_num_objects": 0
    },
    {
      "pool": 3,
      "pool_name": "onedatastoreimage",
      "flags": 0,
      "flags_names": "",
      "type": 1,
      "size": 3,
      "min_size": 1,
      "crush_ruleset": 0,
      "object_hash": 2,
      "pg_num": 100,
      "pg_placement_num": 100,
      "crash_replay_interval": 0,
      "last_change": "66",
      "last_force_op_resend": "0",
      "auid": 0,
      "snap_mode": "selfmanaged",
      "snap_seq": 0,
      "snap_epoch": 0,
      "pool_snaps": [],
      "removed_snaps": "[]",
      "quota_max_bytes": 0,
      "quota_max_objects": 0,
      "tiers": [],
      "tier_of": -1,
      "read_tier": -1,
      "write_tier": -1,
      "cache_mode": "none",
      "target_max_bytes": 0,
      "target_max_objects": 0,
      "cache_target_dirty_ratio_micro": 0,
      "cache_target_full_ratio_micro": 0,
      "cache_min_flush_age": 0,
      "cache_min_evict_age": 0,
      "erasure_code_profile": "",
      "hit_set_params": {
        "type": "none"
      },
      "hit_set_period": 0,
      "hit_set_count": 0,
      "min_read_recency_for_promote": 1,
      "stripe_width": 0,
      "expected_num_objects": 0
    },
    {
      "pool": 4,
      "pool_name": "openattic",
      "flags": 0,
      "flags_names": "",
      "type": 1,
      "size": 3,
      "min_size": 1,
      "crush_ruleset": 0,
      "object_hash": 2,
      "pg_num": 500,
      "pg_placement_num": 500,
      "crash_replay_interval": 0,
      "last_change": "4099",
      "last_force_op_resend": "0",
      "auid": 0,
      "snap_mode": "selfmanaged",
      "snap_seq": 0,
      "snap_epoch": 0,
      "pool_snaps": [],
      "removed_snaps": "[]",
      "quota_max_bytes": 0,
      "quota_max_objects": 0,
      "tiers": [],
      "tier_of": -1,
      "read_tier": -1,
      "write_tier": -1,
      "cache_mode": "none",
      "target_max_bytes": 0,
      "target_max_objects": 0,
      "cache_target_dirty_ratio_micro": 0,
      "cache_target_full_ratio_micro": 0,
      "cache_min_flush_age": 0,
      "cache_min_evict_age": 0,
      "erasure_code_profile": "",
      "hit_set_params": {
        "type": "none"
      },
      "hit_set_period": 0,
      "hit_set_count": 0,
      "min_read_recency_for_promote": 1,
      "stripe_width": 0,
      "expected_num_objects": 0
    },
    {
      "pool": 7,
      "pool_name": "test",
      "flags": 0,
      "flags_names": "",
      "type": 1,
      "size": 2,
      "min_size": 1,
      "crush_ruleset": 0,
      "object_hash": 2,
      "pg_num": 512,
      "pg_placement_num": 512,
      "crash_replay_interval": 0,
      "last_change": "4873",
      "last_force_op_resend": "0",
      "auid": 0,
      "snap_mode": "selfmanaged",
      "snap_seq": 0,
      "snap_epoch": 0,
      "pool_snaps": [],
      "removed_snaps": "[]",
      "quota_max_bytes": 0,
      "quota_max_objects": 0,
      "tiers": [],
      "tier_of": -1,
      "read_tier": -1,
      "write_tier": -1,
      "cache_mode": "none",
      "target_max_bytes": 0,
      "target_max_objects": 0,
      "cache_target_dirty_ratio_micro": 0,
      "cache_target_full_ratio_micro": 0,
      "cache_min_flush_age": 0,
      "cache_min_evict_age": 0,
      "erasure_code_profile": "",
      "hit_set_params": {
        "type": "none"
      },
      "hit_set_period": 0,
      "hit_set_count": 0,
      "min_read_recency_for_promote": 1,
      "stripe_width": 0,
      "expected_num_objects": 0
    },
    {
      "pool": 10,
      "pool_name": "swimming",
      "flags": 0,
      "flags_names": "",
      "type": 1,
      "size": 3,
      "min_size": 1,
      "crush_ruleset": 0,
      "object_hash": 2,
      "pg_num": 200,
      "pg_placement_num": 200,
      "crash_replay_interval": 0,
      "last_change": "5619",
      "last_force_op_resend": "0",
      "auid": 0,
      "snap_mode": "selfmanaged",
      "snap_seq": 0,
      "snap_epoch": 0,
      "pool_snaps": [],
      "removed_snaps": "[]",
      "quota_max_bytes": 0,
      "quota_max_objects": 0,
      "tiers": [],
      "tier_of": -1,
      "read_tier": -1,
      "write_tier": -1,
      "cache_mode": "none",
      "target_max_bytes": 0,
      "target_max_objects": 0,
      "cache_target_dirty_ratio_micro": 0,
      "cache_target_full_ratio_micro": 0,
      "cache_min_flush_age": 0,
      "cache_min_evict_age": 0,
      "erasure_code_profile": "",
      "hit_set_params": {
        "type": "none"
      },
      "hit_set_period": 0,
      "hit_set_count": 0,
      "min_read_recency_for_promote": 1,
      "stripe_width": 0,
      "expected_num_objects": 0
    },
    {
      "pool": 11,
      "pool_name": "cloud",
      "flags": 0,
      "flags_names": "",
      "type": 1,
      "size": 3,
      "min_size": 1,
      "crush_ruleset": 0,
      "object_hash": 2,
      "pg_num": 512,
      "pg_placement_num": 512,
      "crash_replay_interval": 0,
      "last_change": "6432",
      "last_force_op_resend": "0",
      "auid": 0,
      "snap_mode": "selfmanaged",
      "snap_seq": 39,
      "snap_epoch": 6432,
      "pool_snaps": [],
      "removed_snaps": "[1~27]",
      "quota_max_bytes": 0,
      "quota_max_objects": 0,
      "tiers": [],
      "tier_of": -1,
      "read_tier": -1,
      "write_tier": -1,
      "cache_mode": "none",
      "target_max_bytes": 0,
      "target_max_objects": 0,
      "cache_target_dirty_ratio_micro": 0,
      "cache_target_full_ratio_micro": 0,
      "cache_min_flush_age": 0,
      "cache_min_evict_age": 0,
      "erasure_code_profile": "",
      "hit_set_params": {
        "type": "none"
      },
      "hit_set_period": 0,
      "hit_set_count": 0,
      "min_read_recency_for_promote": 1,
      "stripe_width": 0,
      "expected_num_objects": 0
    },
    {
      "pool": 13,
      "pool_name": "nfs",
      "flags": 0,
      "flags_names": "",
      "type": 1,
      "size": 2,
      "min_size": 1,
      "crush_ruleset": 0,
      "object_hash": 2,
      "pg_num": 200,
      "pg_placement_num": 200,
      "crash_replay_interval": 0,
      "last_change": "6313",
      "last_force_op_resend": "0",
      "auid": 0,
      "snap_mode": "selfmanaged",
      "snap_seq": 0,
      "snap_epoch": 0,
      "pool_snaps": [],
      "removed_snaps": "[]",
      "quota_max_bytes": 0,
      "quota_max_objects": 0,
      "tiers": [],
      "tier_of": -1,
      "read_tier": -1,
      "write_tier": -1,
      "cache_mode": "none",
      "target_max_bytes": 0,
      "target_max_objects": 0,
      "cache_target_dirty_ratio_micro": 0,
      "cache_target_full_ratio_micro": 0,
      "cache_min_flush_age": 0,
      "cache_min_evict_age": 0,
      "erasure_code_profile": "",
      "hit_set_params": {
        "type": "none"
      },
      "hit_set_period": 0,
      "hit_set_count": 0,
      "min_read_recency_for_promote": 1,
      "stripe_width": 0,
      "expected_num_objects": 0
    },
    {
      "pool": 14,
      "pool_name": "samba",
      "flags": 0,
      "flags_names": "",
      "type": 1,
      "size": 2,
      "min_size": 1,
      "crush_ruleset": 0,
      "object_hash": 2,
      "pg_num": 200,
      "pg_placement_num": 200,
      "crash_replay_interval": 0,
      "last_change": "6317",
      "last_force_op_resend": "0",
      "auid": 0,
      "snap_mode": "selfmanaged",
      "snap_seq": 0,
      "snap_epoch": 0,
      "pool_snaps": [],
      "removed_snaps": "[]",
      "quota_max_bytes": 0,
      "quota_max_objects": 0,
      "tiers": [],
      "tier_of": -1,
      "read_tier": -1,
      "write_tier": -1,
      "cache_mode": "none",
      "target_max_bytes": 0,
      "target_max_objects": 0,
      "cache_target_dirty_ratio_micro": 0,
      "cache_target_full_ratio_micro": 0,
      "cache_min_flush_age": 0,
      "cache_min_evict_age": 0,
      "erasure_code_profile": "",
      "hit_set_params": {
        "type": "none"
      },
      "hit_set_period": 0,
      "hit_set_count": 0,
      "min_read_recency_for_promote": 1,
      "stripe_width": 0,
      "expected_num_objects": 0
    },
    {
      "pool": 20,
      "pool_name": "admin",
      "flags": 0,
      "flags_names": "",
      "type": 1,
      "size": 2,
      "min_size": 2,
      "crush_ruleset": 0,
      "object_hash": 2,
      "pg_num": 200,
      "pg_placement_num": 200,
      "crash_replay_interval": 0,
      "last_change": "6439",
      "last_force_op_resend": "0",
      "auid": 0,
      "snap_mode": "selfmanaged",
      "snap_seq": 0,
      "snap_epoch": 0,
      "pool_snaps": [],
      "removed_snaps": "[]",
      "quota_max_bytes": 0,
      "quota_max_objects": 0,
      "tiers": [],
      "tier_of": -1,
      "read_tier": -1,
      "write_tier": -1,
      "cache_mode": "none",
      "target_max_bytes": 0,
      "target_max_objects": 0,
      "cache_target_dirty_ratio_micro": 0,
      "cache_target_full_ratio_micro": 0,
      "cache_min_flush_age": 0,
      "cache_min_evict_age": 0,
      "erasure_code_profile": "",
      "hit_set_params": {
        "type": "none"
      },
      "hit_set_period": 0,
      "hit_set_count": 0,
      "min_read_recency_for_promote": 1,
      "stripe_width": 0,
      "expected_num_objects": 0
    }
  ],
  "osds": [
    {
      "osd": 0,
      "uuid": "xxxxxxxxxx",
      "up": 1,
      "in": 1,
      "weight": 1,
      "primary_affinity": 1,
      "last_clean_begin": 10115,
      "last_clean_end": 14886,
      "up_from": 14887,
      "up_thru": 14893,
      "down_at": 14885,
      "lost_at": 0,
      "public_addr": "10.0.0.0:6800/",
      "cluster_addr": "10.0.0.0:6800/",
      "heartbeat_back_addr": "10.0.0.0:6800/",
      "heartbeat_front_addr": "10.0.0.0:6800/",
      "state": [
        "exists",
        "up"
      ]
    },
    {
      "osd": 1,
      "uuid": "xxxxxxxxxx",
      "up": 1,
      "in": 1,
      "weight": 1,
      "primary_affinity": 1,
      "last_clean_begin": 10120,
      "last_clean_end": 14892,
      "up_from": 14893,
      "up_thru": 14893,
      "down_at": 14885,
      "lost_at": 0,
      "public_addr": "10.0.0.0:6800/",
      "cluster_addr": "10.0.0.0:6800/",
      "heartbeat_back_addr": "10.0.0.0:6800/",
      "heartbeat_front_addr": "10.0.0.0:6800/",
      "state": [
        "exists",
        "up"
      ]
    },
    {
      "osd": 2,
      "uuid": "xxxxx",
      "up": 1,
      "in": 1,
      "weight": 1,
      "primary_affinity": 1,
      "last_clean_begin": 10117,
      "last_clean_end": 14886,
      "up_from": 14887,
      "up_thru": 14893,
      "down_at": 14885,
      "lost_at": 0,
      "public_addr": "10.0.0.0:6800/",
      "cluster_addr": "10.0.0.0:6800/",
      "heartbeat_back_addr": "10.0.0.0:6800/",
      "heartbeat_front_addr": "10.0.0.0:6800/",
      "state": [
        "exists",
        "up"
      ]
    },
    {
      "osd": 4,
      "uuid": "xxxxxxxxxxxx",
      "up": 1,
      "in": 1,
      "weight": 1,
      "primary_affinity": 1,
      "last_clean_begin": 10126,
      "last_clean_end": 13946,
      "up_from": 13953,
      "up_thru": 14893,
      "down_at": 13952,
      "lost_at": 0,
      "public_addr": "10.0.0.0:6800/",
      "cluster_addr": "10.0.0.0:6800/",
      "heartbeat_back_addr": "10.0.0.0:6800/",
      "heartbeat_front_addr": "10.0.0.0:6800/",
      "state": [
        "exists",
        "up"
      ]
    },
    {
      "osd": 5,
      "uuid": "xxxxxxx",
      "up": 1,
      "in": 1,
      "weight": 1,
      "primary_affinity": 1,
      "last_clean_begin": 10129,
      "last_clean_end": 14272,
      "up_from": 14274,
      "up_thru": 14893,
      "down_at": 14272,
      "lost_at": 0,
      "public_addr": "10.0.0.0:6800/",
      "cluster_addr": "10.0.0.0:6800/",
      "heartbeat_back_addr": "10.0.0.0:6800/",
      "heartbeat_front_addr": "10.0.0.0:6800/",
      "state": [
        "exists",
        "up"
      ]
    },
    {
      "osd": 6,
      "uuid": "xxxxxxx",
      "up": 1,
      "in": 1,
      "weight": 1,
      "primary_affinity": 1,
      "last_clean_begin": 10107,
      "last_clean_end": 14867,
      "up_from": 14869,
      "up_thru": 14893,
      "down_at": 14861,
      "lost_at": 0,
      "public_addr": "10.0.0.0:6800/",
      "cluster_addr": "10.0.0.0:6800/",
      "heartbeat_back_addr": "10.0.0.0:6800/",
      "heartbeat_front_addr": "10.0.0.0:6800/",
      "state": [
        "exists",
        "up"
      ]
    },
    {
      "osd": 7,
      "uuid": "xxxxxxxxxxxx",
      "up": 1,
      "in": 1,
      "weight": 1,
      "primary_affinity": 1,
      "last_clean_begin": 10105,
      "last_clean_end": 14885,
      "up_from": 14886,
      "up_thru": 14893,
      "down_at": 14885,
      "lost_at": 0,
      "public_addr": "10.0.0.0:6800/",
      "cluster_addr": "10.0.0.0:6800/",
      "heartbeat_back_addr": "10.0.0.0:6800/",
      "heartbeat_front_addr": "10.0.0.0:6800/",
      "state": [
        "exists",
        "up"
      ]
    },
    {
      "osd": 8,
      "uuid": "xxxxxxxxxxxxxxx",
      "up": 1,
      "in": 1,
      "weight": 1,
      "primary_affinity": 1,
      "last_clean_begin": 10120,
      "last_clean_end": 14889,
      "up_from": 14890,
      "up_thru": 14893,
      "down_at": 14885,
      "lost_at": 0,
      "public_addr": "10.0.0.0:6800/",
      "cluster_addr": "10.0.0.0:6800/",
      "heartbeat_back_addr": "10.0.0.0:6800/",
      "heartbeat_front_addr": "10.0.0.0:6800/",
      "state": [
        "exists",
        "up"
      ]
    },
    {
      "osd": 9,
      "uuid": "xxxxxxxxxxxx",
      "up": 1,
      "in": 1,
      "weight": 1,
      "primary_affinity": 1,
      "last_clean_begin": 10109,
      "last_clean_end": 14886,
      "up_from": 14887,
      "up_thru": 14893,
      "down_at": 14885,
      "lost_at": 0,
      "public_addr": "10.0.0.0:6800/",
      "cluster_addr": "10.0.0.0:6800/",
      "heartbeat_back_addr": "10.0.0.0:6800/",
      "heartbeat_front_addr": "10.0.0.0:6800/",
      "state": [
        "exists",
        "up"
      ]
    },
    {
      "osd": 11,
      "uuid": "xxxxxxxxxxxxx",
      "up": 1,
      "in": 1,
      "weight": 1,
      "primary_affinity": 1,
      "last_clean_begin": 10124,
      "last_clean_end": 13364,
      "up_from": 13366,
      "up_thru": 14893,
      "down_at": 13363,
      "lost_at": 0,
      "public_addr": "10.0.0.0:6800/",
      "cluster_addr": "10.0.0.0:6800/",
      "heartbeat_back_addr": "10.0.0.0:6800/",
      "heartbeat_front_addr": "10.0.0.0:6800/",
      "state": [
        "exists",
        "up"
      ]
    },
    {
      "osd": 12,
      "uuid": "xxxxx",
      "up": 1,
      "in": 1,
      "weight": 1,
      "primary_affinity": 1,
      "last_clean_begin": 10111,
      "last_clean_end": 14872,
      "up_from": 14874,
      "up_thru": 14893,
      "down_at": 14871,
      "lost_at": 0,
      "public_addr": "10.0.0.0:6800/",
      "cluster_addr": "10.0.0.0:6800/",
      "heartbeat_back_addr": "10.0.0.0:6800/",
      "heartbeat_front_addr": "10.0.0.0:6800/",
      "state": [
        "exists",
        "up"
      ]
    },
    {
      "osd": 13,
      "uuid": "xxxxxxx",
      "up": 1,
      "in": 1,
      "weight": 1,
      "primary_affinity": 1,
      "last_clean_begin": 12517,
      "last_clean_end": 14886,
      "up_from": 14890,
      "up_thru": 14893,
      "down_at": 14885,
      "lost_at": 0,
      "public_addr": "10.0.0.0:6800/",
      "cluster_addr": "10.0.0.0:6800/",
      "heartbeat_back_addr": "10.0.0.0:6800/",
      "heartbeat_front_addr": "10.0.0.0:6800/",
      "state": [
        "exists",
        "up"
      ]
    },
    {
      "osd": 14,
      "uuid": "xxxx",
      "up": 1,
      "in": 1,
      "weight": 1,
      "primary_affinity": 1,
      "last_clean_begin": 12753,
      "last_clean_end": 14885,
      "up_from": 14888,
      "up_thru": 14893,
      "down_at": 14885,
      "lost_at": 0,
      "public_addr": "10.0.0.0:6800/",
      "cluster_addr": "10.0.0.0:6800/",
      "heartbeat_back_addr": "10.0.0.0:6800/",
      "heartbeat_front_addr": "10.0.0.0:6800/",
      "state": [
        "exists",
        "up"
      ]
    },
    {
      "osd": 15,
      "uuid": "xxxxxxx",
      "up": 1,
      "in": 1,
      "weight": 1,
      "primary_affinity": 1,
      "last_clean_begin": 14693,
      "last_clean_end": 14892,
      "up_from": 14893,
      "up_thru": 14893,
      "down_at": 14885,
      "lost_at": 0,
      "public_addr": "10.0.0.0:6800/",
      "cluster_addr": "10.0.0.0:6800/",
      "heartbeat_back_addr": "10.0.0.0:6800/",
      "heartbeat_front_addr": "10.0.0.0:6800/",
      "state": [
        "exists",
        "up"
      ]
    }
  ],
  "osd_xinfo": [
    {
      "osd": 0,
      "down_stamp": "2016-06-05 23:04:59.357904",
      "laggy_probability": 1,
      "laggy_interval": 3,
      "features": 37154696925806590,
      "old_weight": 65536
    },
    {
      "osd": 1,
      "down_stamp": "2016-06-05 23:04:59.357904",
      "laggy_probability": 1,
      "laggy_interval": 9,
      "features": 37154696925806590,
      "old_weight": 65536
    },
    {
      "osd": 2,
      "down_stamp": "2016-06-05 23:04:59.357904",
      "laggy_probability": 1,
      "laggy_interval": 7,
      "features": 37154696925806590,
      "old_weight": 0
    },
    {
      "osd": 4,
      "down_stamp": "2016-06-05 12:13:12.358978",
      "laggy_probability": 0.312342,
      "laggy_interval": 38476,
      "features": 37154696925806590,
      "old_weight": 65536
    },
    {
      "osd": 5,
      "down_stamp": "2016-06-05 13:44:29.527300",
      "laggy_probability": 0.731808,
      "laggy_interval": 26838,
      "features": 37154696925806590,
      "old_weight": 65536
    },
    {
      "osd": 6,
      "down_stamp": "2016-06-05 22:14:59.067336",
      "laggy_probability": 1,
      "laggy_interval": 19,
      "features": 37154696925806590,
      "old_weight": 0
    },
    {
      "osd": 7,
      "down_stamp": "2016-06-05 23:04:59.357904",
      "laggy_probability": 1,
      "laggy_interval": 10,
      "features": 37154696925806590,
      "old_weight": 0
    },
    {
      "osd": 8,
      "down_stamp": "2016-06-05 23:04:59.357904",
      "laggy_probability": 1,
      "laggy_interval": 14,
      "features": 37154696925806590,
      "old_weight": 65536
    },
    {
      "osd": 9,
      "down_stamp": "2016-06-05 23:04:59.357904",
      "laggy_probability": 1,
      "laggy_interval": 7,
      "features": 37154696925806590,
      "old_weight": 0
    },
    {
      "osd": 11,
      "down_stamp": "2016-06-05 00:39:58.958712",
      "laggy_probability": 0.450605,
      "laggy_interval": 54639,
      "features": 37154696925806590,
      "old_weight": 65536
    },
    {
      "osd": 12,
      "down_stamp": "2016-06-05 22:16:49.139944",
      "laggy_probability": 1,
      "laggy_interval": 6,
      "features": 37154696925806590,
      "old_weight": 0
    },
    {
      "osd": 13,
      "down_stamp": "2016-06-05 23:04:59.357904",
      "laggy_probability": 1,
      "laggy_interval": 22,
      "features": 37154696925806590,
      "old_weight": 65536
    },
    {
      "osd": 14,
      "down_stamp": "2016-06-05 23:04:59.357904",
      "laggy_probability": 1,
      "laggy_interval": 6,
      "features": 37154696925806590,
      "old_weight": 65536
    },
    {
      "osd": 15,
      "down_stamp": "2016-06-05 23:04:59.357904",
      "laggy_probability": 0.987894,
      "laggy_interval": 27,
      "features": 37154696925806590,
      "old_weight": 65536
    }
  ],
  "pg_temp": [],
  "primary_temp": [],
  "blacklist": [],
  "erasure_code_profiles": {}
}
